#line 1 "src/hello-world.cob"

 IDENTIFICATION DIVISION.
 PROGRAM-ID. hello-world.
 DATA DIVISION.
 WORKING-STORAGE SECTION.
 01 WS-RESULT PIC X(14).
 PROCEDURE DIVISION.
 HELLO-WORLD.
 MOVE "Goodbye, Mars!" TO WS-RESULT.

